{
    "/js/core.js": "/js/core.js?id=6b418d200844bb250eeb",
    "/css/core.css": "/css/core.css?id=5ed5fc20096a475ae39e",
    "/css/dropzone.css": "/css/dropzone.css?id=0c48441e469cdaf765c8",
    "/css/fontawesome.css": "/css/fontawesome.css?id=963adfda14e5d7f54d9b",
    "/js/core.js.map": "/js/core.js.map?id=133b0f28ce266a814ec5",
    "/css/core.css.map": "/css/core.css.map?id=9f38d313f8a04b75a0d9",
    "/css/dropzone.css.map": "/css/dropzone.css.map?id=0cb82beb6b5d4ba02a37",
    "/css/fontawesome.css.map": "/css/fontawesome.css.map?id=da9ce49a5c55a040f556",
    "/js/manifest.js": "/js/manifest.js?id=89712bc6d8c588400cae",
    "/js/manifest.js.map": "/js/manifest.js.map?id=2d58fed8b8c4a064950d",
    "/js/vendor.js": "/js/vendor.js?id=d9278724ee01ce617130",
    "/js/vendor.js.map": "/js/vendor.js.map?id=54fe2eb77cbd2b4be784"
}
